{
  "log": {
    "loglevel": "warning"
  },
  "inbounds": [
    {
      "listen": "0.0.0.0",
      "port": 560,
      "protocol": "vmess",
      "allocate": {
        "strategy": "always"
      },
      "settings": {
        "clients": [
          {
            "id": "ff5aa632-15eb-46e7-a3f1-996d821bf177",
            "level": 1,
            "alterId": 64,
            "email": "test@toole.com"
          }
        ],
        "disableInsecureEncryption": true
      },
      "streamSettings": {
        "network": "ws",
        "wsSettings": {
          "connectionReuse": true,
          "path": "/graphql"
        },
        "security": "none",
        "tcpSettings": {
          "header": {
            "type": "http",
            "response": {
              "version": "1.1",
              "status": "200",
              "reason": "OK",
              "headers": {
                "Content-Type": [
                  "application/octet-stream",
                  "application/x-msdownload",
                  "text/html",
                  "application/x-shockwave-flash"
                ],
                "Transfer-Encoding": ["chunked"],
                "Connection": ["keep-alive"],
                "Pragma": "no-cache"
              }
            }
          }
        }
      }
    },
    {
      "listen": "0.0.0.0",
      "port": 1080,
      "protocol": "http",
      "settings": {
        "udp": true,
        "accounts": [
          {
            "user": "rahmat",
            "pass": "RahmateKhooboNazanin@721"
          }
        ]
      }
    }
  ],
  "outbound": {
    "tag": "agentout",
    "protocol": "vmess",
    "settings": {
      "vnext": [
        {
          "address": "148.251.157.116",
          "port": 1024,
          "users": [
            {
              "id": "a81124a1-2a26-4221-955d-41a2199bf3fd",
              "alterId": 233,
              "security": null
            }
          ]
        }
      ]
    },
    "streamSettings": {
      "network": "tcp",
      "security": "",
      "tcpSettings": {
        "connectionReuse": true,
        "header": {
          "type": "http",
          "request": {
            "version": "1.1",
            "method": "GET",
            "path": ["/"],
            "headers": {
              "Host": ["www.bing.com"],
              "User-Agent": [
                "Mozilla/5.0 (Windows NT 10.0; WOW64) AppleWebKit/537.36 (KHTML, like Gecko) Chrome/55.0.2883.75 Safari/537.36",
                "Mozilla/5.0 (iPhone; CPU iPhone OS 10_0_2 like Mac OS X) AppleWebKit/601.1 (KHTML, like Gecko) CriOS/53.0.2785.109 Mobile/14A456 Safari/601.1.46"
              ],
              "Accept-Encoding": ["gzip, deflate"],
              "Connection": ["keep-alive"],
              "Pragma": "no-cache"
            }
          },
          "response": {
            "version": "1.1",
            "status": "200",
            "reason": "OK",
            "headers": {
              "Content-Type": ["application/octet-stream", "video/mpeg"],
              "Transfer-Encoding": ["chunked"],
              "Connection": ["keep-alive"],
              "Pragma": "no-cache"
            }
          }
        }
      },
      "kcpSettings": null,
      "wsSettings": null
    },
    "mux": {
      "enabled": true
    }
  },
  "inboundDetour": null,
  "outboundDetour": [
    {
      "protocol": "freedom",
      "settings": {
        "response": null
      },
      "tag": "direct"
    },
    {
      "protocol": "blackhole",
      "settings": {
        "response": {
          "type": "http"
        }
      },
      "tag": "blockout"
    }
  ],
  "dns": {
    "servers": ["8.8.8.8", "8.8.4.4", "localhost"]
  },
  "routing": {
    "strategy": "rules",
    "settings": {
      "rules": [
        {
          "type": "field",
          "domain": ["regexp:.*\\.ir$"],
          "outboundTag": "direct"
        },
        {
          "type": "field",
          "ip": ["geoip:private", "geoip:ir"],
          "outboundTag": "direct"
        }
      ]
    }
  }
}
